{
    "swagger": "2.0",
    "info": {
        "title": "Laravel Generator APIs",
        "version": "1.0.0"
    },
    "basePath": "/api/v1",
    "paths": {
        "/signup": {
            "post": {
                "tags": [
                    "Auth"
                ],
                "summary": "Signup user",
                "description": "Signup user",
                "produces": [
                    "application/json"
                ],
                "parameters": [
                    {
                        "name": "body",
                        "in": "body",
                        "description": "User that should be signup",
                        "required": true,
                        "schema": {
                            "properties": {
                                "name": {
                                    "description": "nombre",
                                    "type": "string"
                                },
                                "email": {
                                    "description": "email",
                                    "type": "string"
                                },
                                "password": {
                                    "description": "password",
                                    "type": "string"
                                }
                            },
                            "type": "object"
                        }
                    }
                ],
                "responses": {
                    "200": {
                        "description": "successful operation",
                        "schema": {
                            "properties": {
                                "message": {
                                    "description": "Registrar usuario",
                                    "type": "string",
                                    "example": "Successfully created user!"
                                }
                            },
                            "type": "object"
                        }
                    },
                    "422": {
                        "description": "Unprocessable entity",
                        "schema": {
                            "properties": {
                                "message": {
                                    "description": "Registrar usuario",
                                    "type": "string",
                                    "example": "The given data was invalid."
                                },
                                "errors": {
                                    "description": "errors object",
                                    "type": "object"
                                }
                            },
                            "type": "object"
                        }
                    }
                }
            }
        },
        "/login": {
            "post": {
                "tags": [
                    "Auth"
                ],
                "summary": "Login user",
                "description": "Login user",
                "produces": [
                    "application/json"
                ],
                "parameters": [
                    {
                        "name": "body",
                        "in": "body",
                        "description": "User that should be login",
                        "required": true,
                        "schema": {
                            "properties": {
                                "email": {
                                    "description": "email",
                                    "type": "string"
                                },
                                "password": {
                                    "description": "password",
                                    "type": "string"
                                },
                                "remember_me": {
                                    "description": "remember password",
                                    "type": "boolean",
                                    "example": false
                                }
                            },
                            "type": "object"
                        }
                    }
                ],
                "responses": {
                    "200": {
                        "description": "successful operation",
                        "schema": {
                            "properties": {
                                "access_token": {
                                    "description": "Inicio de sesi\u00f3n y generaci\u00f3n de token",
                                    "type": "string",
                                    "example": "eyJ0eXAiOiJKV1QiLCJhbGciOiJSUzI1NiJ9....."
                                },
                                "token_type": {
                                    "description": "Inicio de sesi\u00f3n y generaci\u00f3n de token",
                                    "type": "string",
                                    "example": "Bearer"
                                },
                                "expires_at": {
                                    "description": "Inicio de sesi\u00f3n y generaci\u00f3n de token",
                                    "type": "string",
                                    "example": "2020-12-18 02:58:28"
                                }
                            },
                            "type": "object"
                        }
                    }
                }
            }
        },
        "/logout": {
            "post": {
                "tags": [
                    "Auth"
                ],
                "summary": "Logout user",
                "description": "Logout user",
                "produces": [
                    "application/json"
                ],
                "responses": {
                    "200": {
                        "description": "successful operation",
                        "schema": {
                            "properties": {
                                "message": {
                                    "description": "Cierre de sesi\u00f3n, inhabilitar token",
                                    "type": "string",
                                    "example": "Successfully logged out"
                                }
                            },
                            "type": "object"
                        }
                    }
                }
            }
        },
        "/user": {
            "post": {
                "tags": [
                    "User"
                ],
                "summary": "User info",
                "description": "User info",
                "produces": [
                    "application/json"
                ],
                "responses": {
                    "200": {
                        "description": "successful operation",
                        "schema": {
                            "properties": {
                                "id": {
                                    "description": "id",
                                    "type": "integer",
                                    "format": "int32",
                                    "example": 1
                                },
                                "name": {
                                    "description": "nombre",
                                    "type": "string",
                                    "example": "Juan Leal"
                                },
                                "email": {
                                    "description": "email",
                                    "type": "string",
                                    "example": "juanglealp@gmail.com"
                                },
                                "email_verified_at": {
                                    "description": "email verified at",
                                    "type": "boolean",
                                    "example": false
                                },
                                "created_at": {
                                    "description": "Devolver datos del usuario auntenticado",
                                    "type": "string",
                                    "example": "2020-11-11T02:47:42.000000Z"
                                },
                                "updated_at": {
                                    "description": "Devolver datos del usuario auntenticado",
                                    "type": "string",
                                    "example": "2020-12-11T10:23:12.000000Z"
                                }
                            },
                            "type": "object"
                        }
                    }
                }
            }
        },
        "/categorias": {
            "get": {
                "tags": [
                    "Categorias"
                ],
                "summary": "Get a listing of the Categorias.",
                "description": "Get all Categorias",
                "produces": [
                    "application/json"
                ],
                "responses": {
                    "200": {
                        "description": "successful operation",
                        "schema": {
                            "properties": {
                                "success": {
                                    "type": "boolean"
                                },
                                "data": {
                                    "type": "array",
                                    "items": {
                                        "$ref": "#/definitions/Categorias"
                                    }
                                },
                                "message": {
                                    "type": "string"
                                }
                            },
                            "type": "object"
                        }
                    }
                }
            },
            "post": {
                "tags": [
                    "Categorias"
                ],
                "summary": "Store a newly created Categorias in storage",
                "description": "Store Categorias",
                "produces": [
                    "application/json"
                ],
                "parameters": [
                    {
                        "name": "body",
                        "in": "body",
                        "description": "Categorias that should be stored",
                        "required": false,
                        "schema": {
                            "$ref": "#/definitions/Categorias"
                        }
                    }
                ],
                "responses": {
                    "200": {
                        "description": "successful operation",
                        "schema": {
                            "properties": {
                                "success": {
                                    "type": "boolean"
                                },
                                "data": {
                                    "$ref": "#/definitions/Categorias"
                                },
                                "message": {
                                    "type": "string"
                                }
                            },
                            "type": "object"
                        }
                    }
                }
            }
        },
        "/categorias/{id}": {
            "get": {
                "tags": [
                    "Categorias"
                ],
                "summary": "Display the specified Categorias",
                "description": "Get Categorias",
                "produces": [
                    "application/json"
                ],
                "parameters": [
                    {
                        "name": "id",
                        "in": "path",
                        "description": "id of Categorias",
                        "required": true,
                        "type": "integer"
                    }
                ],
                "responses": {
                    "200": {
                        "description": "successful operation",
                        "schema": {
                            "properties": {
                                "success": {
                                    "type": "boolean"
                                },
                                "data": {
                                    "$ref": "#/definitions/Categorias"
                                },
                                "message": {
                                    "type": "string"
                                }
                            },
                            "type": "object"
                        }
                    }
                }
            },
            "put": {
                "tags": [
                    "Categorias"
                ],
                "summary": "Update the specified Categorias in storage",
                "description": "Update Categorias",
                "produces": [
                    "application/json"
                ],
                "parameters": [
                    {
                        "name": "id",
                        "in": "path",
                        "description": "id of Categorias",
                        "required": true,
                        "type": "integer"
                    },
                    {
                        "name": "body",
                        "in": "body",
                        "description": "Categorias that should be updated",
                        "required": false,
                        "schema": {
                            "$ref": "#/definitions/Categorias"
                        }
                    }
                ],
                "responses": {
                    "200": {
                        "description": "successful operation",
                        "schema": {
                            "properties": {
                                "success": {
                                    "type": "boolean"
                                },
                                "data": {
                                    "$ref": "#/definitions/Categorias"
                                },
                                "message": {
                                    "type": "string"
                                }
                            },
                            "type": "object"
                        }
                    }
                }
            },
            "delete": {
                "tags": [
                    "Categorias"
                ],
                "summary": "Remove the specified Categorias from storage",
                "description": "Delete Categorias",
                "produces": [
                    "application/json"
                ],
                "parameters": [
                    {
                        "name": "id",
                        "in": "path",
                        "description": "id of Categorias",
                        "required": true,
                        "type": "integer"
                    }
                ],
                "responses": {
                    "200": {
                        "description": "successful operation",
                        "schema": {
                            "properties": {
                                "success": {
                                    "type": "boolean"
                                },
                                "data": {
                                    "type": "string"
                                },
                                "message": {
                                    "type": "string"
                                }
                            },
                            "type": "object"
                        }
                    }
                }
            }
        },
        "/clasificados": {
            "get": {
                "tags": [
                    "Clasificados"
                ],
                "summary": "Get a listing of the Clasificados.",
                "description": "Get all Clasificados",
                "produces": [
                    "application/json"
                ],
                "responses": {
                    "200": {
                        "description": "successful operation",
                        "schema": {
                            "properties": {
                                "success": {
                                    "type": "boolean"
                                },
                                "data": {
                                    "type": "array",
                                    "items": {
                                        "$ref": "#/definitions/Clasificados"
                                    }
                                },
                                "message": {
                                    "type": "string"
                                }
                            },
                            "type": "object"
                        }
                    }
                }
            },
            "post": {
                "tags": [
                    "Clasificados"
                ],
                "summary": "Store a newly created Clasificados in storage",
                "description": "Store Clasificados",
                "produces": [
                    "application/json"
                ],
                "parameters": [
                    {
                        "name": "body",
                        "in": "body",
                        "description": "Clasificados that should be stored",
                        "required": false,
                        "schema": {
                            "$ref": "#/definitions/Clasificados"
                        }
                    }
                ],
                "responses": {
                    "200": {
                        "description": "successful operation",
                        "schema": {
                            "properties": {
                                "success": {
                                    "type": "boolean"
                                },
                                "data": {
                                    "$ref": "#/definitions/Clasificados"
                                },
                                "message": {
                                    "type": "string"
                                }
                            },
                            "type": "object"
                        }
                    }
                }
            }
        },
        "/clasificados/{id}": {
            "get": {
                "tags": [
                    "Clasificados"
                ],
                "summary": "Display the specified Clasificados",
                "description": "Get Clasificados",
                "produces": [
                    "application/json"
                ],
                "parameters": [
                    {
                        "name": "id",
                        "in": "path",
                        "description": "id of Clasificados",
                        "required": true,
                        "type": "integer"
                    }
                ],
                "responses": {
                    "200": {
                        "description": "successful operation",
                        "schema": {
                            "properties": {
                                "success": {
                                    "type": "boolean"
                                },
                                "data": {
                                    "$ref": "#/definitions/Clasificados"
                                },
                                "message": {
                                    "type": "string"
                                }
                            },
                            "type": "object"
                        }
                    }
                }
            },
            "put": {
                "tags": [
                    "Clasificados"
                ],
                "summary": "Update the specified Clasificados in storage",
                "description": "Update Clasificados",
                "produces": [
                    "application/json"
                ],
                "parameters": [
                    {
                        "name": "id",
                        "in": "path",
                        "description": "id of Clasificados",
                        "required": true,
                        "type": "integer"
                    },
                    {
                        "name": "body",
                        "in": "body",
                        "description": "Clasificados that should be updated",
                        "required": false,
                        "schema": {
                            "$ref": "#/definitions/Clasificados"
                        }
                    }
                ],
                "responses": {
                    "200": {
                        "description": "successful operation",
                        "schema": {
                            "properties": {
                                "success": {
                                    "type": "boolean"
                                },
                                "data": {
                                    "$ref": "#/definitions/Clasificados"
                                },
                                "message": {
                                    "type": "string"
                                }
                            },
                            "type": "object"
                        }
                    }
                }
            },
            "delete": {
                "tags": [
                    "Clasificados"
                ],
                "summary": "Remove the specified Clasificados from storage",
                "description": "Delete Clasificados",
                "produces": [
                    "application/json"
                ],
                "parameters": [
                    {
                        "name": "id",
                        "in": "path",
                        "description": "id of Clasificados",
                        "required": true,
                        "type": "integer"
                    }
                ],
                "responses": {
                    "200": {
                        "description": "successful operation",
                        "schema": {
                            "properties": {
                                "success": {
                                    "type": "boolean"
                                },
                                "data": {
                                    "type": "string"
                                },
                                "message": {
                                    "type": "string"
                                }
                            },
                            "type": "object"
                        }
                    }
                }
            }
        },
        "/subcategorias": {
            "get": {
                "tags": [
                    "Subcategorias"
                ],
                "summary": "Get a listing of the Subcategorias.",
                "description": "Get all Subcategorias",
                "produces": [
                    "application/json"
                ],
                "responses": {
                    "200": {
                        "description": "successful operation",
                        "schema": {
                            "properties": {
                                "success": {
                                    "type": "boolean"
                                },
                                "data": {
                                    "type": "array",
                                    "items": {
                                        "$ref": "#/definitions/Subcategorias"
                                    }
                                },
                                "message": {
                                    "type": "string"
                                }
                            },
                            "type": "object"
                        }
                    }
                }
            },
            "post": {
                "tags": [
                    "Subcategorias"
                ],
                "summary": "Store a newly created Subcategorias in storage",
                "description": "Store Subcategorias",
                "produces": [
                    "application/json"
                ],
                "parameters": [
                    {
                        "name": "body",
                        "in": "body",
                        "description": "Subcategorias that should be stored",
                        "required": false,
                        "schema": {
                            "$ref": "#/definitions/Subcategorias"
                        }
                    }
                ],
                "responses": {
                    "200": {
                        "description": "successful operation",
                        "schema": {
                            "properties": {
                                "success": {
                                    "type": "boolean"
                                },
                                "data": {
                                    "$ref": "#/definitions/Subcategorias"
                                },
                                "message": {
                                    "type": "string"
                                }
                            },
                            "type": "object"
                        }
                    }
                }
            }
        },
        "/subcategorias/{id}": {
            "get": {
                "tags": [
                    "Subcategorias"
                ],
                "summary": "Display the specified Subcategorias",
                "description": "Get Subcategorias",
                "produces": [
                    "application/json"
                ],
                "parameters": [
                    {
                        "name": "id",
                        "in": "path",
                        "description": "id of Subcategorias",
                        "required": true,
                        "type": "integer"
                    }
                ],
                "responses": {
                    "200": {
                        "description": "successful operation",
                        "schema": {
                            "properties": {
                                "success": {
                                    "type": "boolean"
                                },
                                "data": {
                                    "$ref": "#/definitions/Subcategorias"
                                },
                                "message": {
                                    "type": "string"
                                }
                            },
                            "type": "object"
                        }
                    }
                }
            },
            "put": {
                "tags": [
                    "Subcategorias"
                ],
                "summary": "Update the specified Subcategorias in storage",
                "description": "Update Subcategorias",
                "produces": [
                    "application/json"
                ],
                "parameters": [
                    {
                        "name": "id",
                        "in": "path",
                        "description": "id of Subcategorias",
                        "required": true,
                        "type": "integer"
                    },
                    {
                        "name": "body",
                        "in": "body",
                        "description": "Subcategorias that should be updated",
                        "required": false,
                        "schema": {
                            "$ref": "#/definitions/Subcategorias"
                        }
                    }
                ],
                "responses": {
                    "200": {
                        "description": "successful operation",
                        "schema": {
                            "properties": {
                                "success": {
                                    "type": "boolean"
                                },
                                "data": {
                                    "$ref": "#/definitions/Subcategorias"
                                },
                                "message": {
                                    "type": "string"
                                }
                            },
                            "type": "object"
                        }
                    }
                }
            },
            "delete": {
                "tags": [
                    "Subcategorias"
                ],
                "summary": "Remove the specified Subcategorias from storage",
                "description": "Delete Subcategorias",
                "produces": [
                    "application/json"
                ],
                "parameters": [
                    {
                        "name": "id",
                        "in": "path",
                        "description": "id of Subcategorias",
                        "required": true,
                        "type": "integer"
                    }
                ],
                "responses": {
                    "200": {
                        "description": "successful operation",
                        "schema": {
                            "properties": {
                                "success": {
                                    "type": "boolean"
                                },
                                "data": {
                                    "type": "string"
                                },
                                "message": {
                                    "type": "string"
                                }
                            },
                            "type": "object"
                        }
                    }
                }
            }
        }
    },
    "definitions": {
        "Categorias": {
            "required": [
                "name",
                "description",
                "created_at"
            ],
            "properties": {
                "id": {
                    "description": "id",
                    "type": "integer",
                    "format": "int32"
                },
                "name": {
                    "description": "name",
                    "type": "string"
                },
                "description": {
                    "description": "description",
                    "type": "string"
                },
                "created_at": {
                    "description": "created_at",
                    "type": "string",
                    "format": "date-time"
                },
                "updated_at": {
                    "description": "updated_at",
                    "type": "string",
                    "format": "date-time"
                },
                "deleted_at": {
                    "description": "deleted_at",
                    "type": "string",
                    "format": "date-time"
                }
            }
        },
        "Clasificados": {
            "required": [
                ""
            ],
            "properties": {
                "id": {
                    "description": "id",
                    "type": "integer",
                    "format": "int32"
                },
                "ad_id": {
                    "description": "ad_id",
                    "type": "string"
                },
                "title": {
                    "description": "title",
                    "type": "string"
                },
                "content": {
                    "description": "content",
                    "type": "string"
                },
                "image_url": {
                    "description": "image_url",
                    "type": "string"
                },
                "link": {
                    "description": "link",
                    "type": "string"
                },
                "categorias_id": {
                    "description": "categorias_id",
                    "type": "integer",
                    "format": "int32"
                },
                "subcategorias_id": {
                    "description": "subcategorias_id",
                    "type": "integer",
                    "format": "int32"
                }
            }
        },
        "Subcategorias": {
            "required": [
                "name",
                "description",
                "categorias_id",
                "created_at"
            ],
            "properties": {
                "id": {
                    "description": "id",
                    "type": "integer",
                    "format": "int32"
                },
                "name": {
                    "description": "name",
                    "type": "string"
                },
                "description": {
                    "description": "description",
                    "type": "string"
                },
                "categorias_id": {
                    "description": "categorias_id",
                    "type": "integer",
                    "format": "int32"
                },
                "created_at": {
                    "description": "created_at",
                    "type": "string",
                    "format": "date-time"
                },
                "updated_at": {
                    "description": "updated_at",
                    "type": "string",
                    "format": "date-time"
                },
                "deleted_at": {
                    "description": "deleted_at",
                    "type": "string",
                    "format": "date-time"
                }
            }
        },
        "User": {
            "required": [
                "name",
                "email",
                "password"
            ],
            "properties": {
                "id": {
                    "description": "id",
                    "type": "integer",
                    "format": "int32"
                },
                "name": {
                    "description": "nombre",
                    "type": "string"
                },
                "email": {
                    "description": "email",
                    "type": "string"
                },
                "password": {
                    "description": "password",
                    "type": "string"
                }
            }
        }
    }
}